…
``` r
# fetch the data for 1919.11
archive2 <- get_archive(1919,11)
archive_1919 <- archive2 %>% 
    unnest_longer(response) %>% 
    unnest_wider(response) %>% 
    select(snippet, keywords, pub_date, type_of_material, word_count)
archive_1919
```

    ## # A tibble: 10,185 x 5
    ##    snippet                 keywords  pub_date   type_of_material word_count
    ##    <chr>                   <list>    <chr>      <chr>                 <int>
    ##  1 <NA>                    <???>     <NA>       <NA>                     NA
    ##  2 On the intelligent ind… <list [1… 1919-11-0… Editorial               295
    ##  3 estimate of persons in… <list [2… 1919-11-0… Article                 119
    ##  4 Isaacs, Hy, slain foll… <list [3… 1919-11-0… Article                  99
    ##  5 Denmark places 16 vess… <list [4… 1919-11-0… Article                 189
    ##  6 Considerable activity … <list [1… 1919-11-0… Article                 400
    ##  7 WASHINGTON, Oct. 31.--… <list [4… 1919-11-0… Front Page              859
    ##  8 vs Jackson              <list [7… 1919-11-0… Article                 151
    ##  9 PRINCETON, N.J., Oct. … <list [6… 1919-11-0… Article                 224
    ## 10 Fined by French for di… <list [4… 1919-11-0… Article                 125
    ## # … with 10,175 more rows

``` r
archive_1919clear <- archive_1919[-c(1), ] %>% 
    unnest_longer(keywords) %>% 
    unnest_wider(keywords) %>% 
    select(snippet, name, value, pub_date, type_of_material, word_count) %>% 
    mutate(pub_date = str_sub(pub_date, 1, 10))
archive_1919clear
```

    ## # A tibble: 27,279 x 6
    ##    snippet             name   value    pub_date type_of_material word_count
    ##    <chr>               <chr>  <chr>    <chr>    <chr>                 <int>
    ##  1 On the intelligent… perso… MCCOOK,… 1919-11… Editorial               295
    ##  2 estimate of person… perso… ROOSEVE… 1919-11… Article                 119
    ##  3 estimate of person… subje… MEMORIA… 1919-11… Article                 119
    ##  4 Isaacs, Hy, slain … perso… ISAACS,… 1919-11… Article                  99
    ##  5 Isaacs, Hy, slain … gloca… NEW YOR… 1919-11… Article                  99
    ##  6 Isaacs, Hy, slain … subje… MURDERS  1919-11… Article                  99
    ##  7 Denmark places 16 … gloca… DENMARK  1919-11… Article                 189
    ##  8 Denmark places 16 … subje… COAL     1919-11… Article                 189
    ##  9 Denmark places 16 … subje… COAL     1919-11… Article                 189
    ## 10 Denmark places 16 … subje… SHIPPING 1919-11… Article                 189
    ## # … with 27,269 more rows
…
